AAACCTGAGAGACGAA-1	AAACCTGAGCCGCCTA-1	AAACCTGAGCGCTTAT-1
ENSMUSG00000051951	0.0	0.0	0.0
ENSMUSG00000089699	0.0	0.0	0.0
ENSMUSG00000025900	0.0	0.0	0.0
ENSMUSG00000025902	0.8334465	0.0	0.0
ENSMUSG00000104328	0.0	0.0	0.0
ENSMUSG00000033845	0.0	0.0	0.0
ENSMUSG00000025903	0.0	0.47712433	0.0
ENSMUSG00000104217	0.0	0.0	0.0
ENSMUSG00000033813	0.0	0.47712433	0.5771441
ENSMUSG00000002459	0.0	0.0	0.0
ENSMUSG00000085623	0.0	0.0	0.0
ENSMUSG00000033793	0.0	0.47712433	0.0
ENSMUSG00000025905	0.0	0.0	0.0
ENSMUSG00000025907	0.0	0.0	0.0
ENSMUSG00000090031	0.0	0.0	0.0
ENSMUSG00000033740	0.0	0.0	0.0
ENSMUSG00000051285	0.0	0.0	0.0
ENSMUSG00000097797	0.0	0.0	0.0
ENSMUSG00000025909	0.0	0.0	0.0
ENSMUSG00000061024	0.0	0.0	0.5771441
ENSMUSG00000025911	0.0	0.0	0.0
ENSMUSG00000067879	0.0	0.0	0.0
ENSMUSG00000025912	0.0	0.0	0.0
ENSMUSG00000045210	0.0	0.0	0.0
ENSMUSG00000097893	0.0	0.0	0.0
ENSMUSG00000025915	0.0	0.0	0.5771441
ENSMUSG00000046101	0.0	0.0	0.0
ENSMUSG00000098234	0.0	0.0	0.0
ENSMUSG00000099032	0.0	0.0	0.0
ENSMUSG00000025916	0.0	0.0	0.0
ENSMUSG00000025917	0.0	0.0	0.0
ENSMUSG00000056763	0.0	0.0	0.0
ENSMUSG00000067851	0.0	0.0	0.0
ENSMUSG00000042501	0.0	0.0	0.0
ENSMUSG00000048960	0.0	0.0	0.0
ENSMUSG00000057715	0.0	0.0	0.0
ENSMUSG00000016918	0.0	0.0	0.0
ENSMUSG00000025938	0.0	0.0	0.0
ENSMUSG00000042414	0.0	0.0	0.0
ENSMUSG00000005886	0.0	0.0	0.0
ENSMUSG00000101476	0.0	0.0	0.0
ENSMUSG00000025935	0.0	0.47712433	0.0
ENSMUSG00000025937	0.0	0.0	0.0
ENSMUSG00000067813	0.0	0.0	0.0
ENSMUSG00000025932	0.0	0.0	0.0
ENSMUSG00000054493	0.0	0.0	0.0
ENSMUSG00000025930	0.0	0.0	0.0
ENSMUSG00000032769	0.0	0.0	0.0
ENSMUSG00000092083	0.0	0.0	0.0
ENSMUSG00000025925	0.0	0.0	0.0
ENSMUSG00000032719	0.0	0.0	0.0
ENSMUSG00000067795	0.0	0.0	0.0
ENSMUSG00000043716	1.5899918	1.0417955	0.9407452
ENSMUSG00000025921	0.0	0.0	0.0
ENSMUSG00000025920	0.0	0.0	0.0
ENSMUSG00000025939	0.0	0.0	0.0
ENSMUSG00000079658	0.0	0.0	0.5771441
ENSMUSG00000097744	0.0	0.0	0.0
ENSMUSG00000025940	0.0	0.0	0.0
ENSMUSG00000025779	0.0	0.0	0.0
ENSMUSG00000042686	0.0	0.0	0.0
ENSMUSG00000025777	0.0	0.0	0.0
ENSMUSG00000067780	0.0	0.0	0.0
ENSMUSG00000100053	0.0	0.0	0.0
ENSMUSG00000085125	0.0	0.0	0.0
ENSMUSG00000025776	0.0	0.0	0.0
ENSMUSG00000025927	0.0	0.47712433	0.0
ENSMUSG00000041872	0.0	0.0	0.0
ENSMUSG00000041859	0.0	0.0	0.0
ENSMUSG00000097934	0.0	0.0	0.0
ENSMUSG00000025931	0.0	0.0	0.0
ENSMUSG00000041809	0.0	0.0	0.0
ENSMUSG00000041779	0.0	0.0	0.0
ENSMUSG00000025933	0.0	0.0	0.0
ENSMUSG00000025934	0.0	0.0	0.0
ENSMUSG00000099343	0.0	0.0	0.0
ENSMUSG00000067750	0.0	0.0	0.0
ENSMUSG00000028033	0.0	0.0	0.0
ENSMUSG00000041670	0.0	0.0	0.0
ENSMUSG00000100775	0.0	0.47712433	0.0
ENSMUSG00000026158	0.0	0.0	0.0
ENSMUSG00000026156	0.0	0.0	0.0
ENSMUSG00000026155	0.8334465	0.7987981	0.0
ENSMUSG00000026154	0.0	0.47712433	0.0
ENSMUSG00000026153	0.0	0.0	0.0
ENSMUSG00000026147	0.0	0.0	0.0
ENSMUSG00000073725	0.0	0.0	0.0
ENSMUSG00000033569	0.0	0.0	0.0
ENSMUSG00000048411	0.0	0.0	0.0
ENSMUSG00000053185	0.0	0.0	0.0
ENSMUSG00000048874	0.8334465	0.0	0.0
ENSMUSG00000026064	0.0	0.0	0.0
ENSMUSG00000026058	0.0	0.0	0.0
ENSMUSG00000091318	0.0	0.0	0.0
ENSMUSG00000026134	0.0	0.0	0.0
ENSMUSG00000004768	0.0	0.0	0.0
ENSMUSG00000042215	0.0	0.0	0.0
ENSMUSG00000042197	0.0	0.0	0.0
ENSMUSG00000042182	0.0	0.0	0.0
ENSMUSG00000026131	0.0	0.0	0.0
